Lehre@AMD - Advanced Dplyr
…
Beide Funktionen haben auch weitere optionale Argumente wie values_fill und names_prefix oder names_sep()um die Daten bei Bedarf weiter anzupassen.

Hier nun die Umformung der Daten von Frenken et al., welche wir vom long Format in das wide Format bringen müssen:

#| echo: true
#| output: true
#| warning: false
#| code-overflow: wrap
#| collapse: true

freq_dat %>% pivot_wider(names_from = c("stim"),
                         values_from = c("hits","miss"),
                         id_cols="subj_idx")

# A tibble: 137 × 9
# Groups:   subj_idx [137]
   subj_idx hits_bg hits_bp hits_wg hits_wp miss_bg miss_bp miss_wg miss_wp
      <dbl>   <dbl>   <dbl>   <dbl>   <dbl>   <dbl>   <dbl>   <dbl>   <dbl>
 1        0      30      28      23      28       1       1       4       5
 2        1      28      16      27      11       2       2       2       1
 3        3      25      10      33      23       0       0       1       1
 4        4      35      24      27      33       1       0       0       0
 5        5      31      28      25      23       1       2       4       4
 6        6      34      26      18      31       0       0       5       0
 7        7      29      24      21      36       2       0       1       1
 8        8      22      29      25      28       0       2      10       2
 9        9      28      23      22      22       2       0       2       1
10       10      26      35      25      24       4       0       0       3
# ℹ 127 more rows
…
